{
    "address_1":{
        "full_address":"new york",
        "country":"USA",
        "street":"New York",
        "city":"Puebla",
        "state":"Alabama",
        "zip":"72594",
        "additional":"additional test",
        "unit_no":"72"

    }
}